goseq_heatmap_Ago2_perfect_vs_imperfect
…
AaegL5 <- readDNAStringSet("/Users/kathryn/mirdeep2_master/Aedes-aegypti-LVP_AGWG_CHROMOSOMES_AaegL5_fixed.fa", format = "fasta", nrec=-1L)
tx <- AaegL5[test]

#writeXStringSet(tx, "/Users/kathryn/Reprocess_all_paper_datasets/alltranscripts.fa", format = "fasta")

#fasta of all transcripts is available on my github; was uploaded to eggNOG-mapper v2: http://eggnog-mapper.embl.de/

##tsv available in github; 
tsv <- read.delim("/Users/kathryn/Reprocess_all_paper_datasets/job_MM_e0ep_7ci_annotations.tsv", header = FALSE, sep ="\t",comment.char = "",skip = 4)
tsvv <- tsv %>% dplyr::select(V1,V7) %>% mutate(Gene=gsub("-..","",V1))
tsvv %>% group_by(Gene) %>% mutate(newGO=paste(V7,sep=","))

## Error in get(genname, envir = envir) : object 'vec_ptype2' not found
## # A tibble: 10,162 x 4
## # Groups:   Gene [7,098]
##    V1       V7                           Gene   newGO                      
##    <fct>    <fct>                        <chr>  <chr>                      
##  1 AAEL012 GO:0005575,GO:0005622,GO:00 AAEL0 GO:0005575,GO:0005622,GO:0
##  2 AAEL012 GO:0005575,GO:0005622,GO:00 AAEL0 GO:0005575,GO:0005622,GO:0
##  3 AAEL012 GO:0003674,GO:0003824,GO:00 AAEL0 GO:0003674,GO:0003824,GO:0
##  4 AAEL027 GO:0000976,GO:0000977,GO:00 AAEL0 GO:0000976,GO:0000977,GO:0
##  5 AAEL011 GO:0000003,GO:0003006,GO:00 AAEL0 GO:0000003,GO:0003006,GO:0
##  6 AAEL005 ""                           AAEL0 ""                         
##  7 AAEL005 ""                           AAEL0 ""                         
##  8 AAEL005 GO:0000028,GO:0000462,GO:00 AAEL0 GO:0000028,GO:0000462,GO:0
##  9 AAEL005 ""                           AAEL0 ""                         
## 10 AAEL011 ""                           AAEL0 ""                         
## #  with 10,152 more rows
…
